{
  "list":[
    {
      "id" : 1,
      "img" : "https://i.postimg.cc/TY1Dw388/image.png",
      "name" : "PatoJAD",
      "url" : "https://patojad.com.ar/index.xml",
      "urlsite" : "https://patojad.com.ar/"
    },{
      "id" : 2,
      "img" : "https://i.postimg.cc/yYDDKp9s/image.png",
      "name" : "Proyecto tic tac",
      "url" : "https://proyectotictac.com/feed/",
      "urlsite" : "https://proyectotictac.com/"
    },{
      "id" : 3,
      "img" : "https://i.postimg.cc/2jK50dtJ/image.png",
      "name" : "Victorhck in the freeworld",
      "url" : "https://victorhckinthefreeworld.com/feed/",
      "urlsite" : "https://victorhckinthefreeworld.com/"
    },{
      "id" : 4,
      "img" : "https://i.postimg.cc/N0jMNNQ3/image.png",
      "name" : "Club de Software Libre",
      "url" : "https://softlibre.com.ar/feed/",
      "urlsite" : "https://softlibre.com.ar/"
    },{
      "id" : 5,
      "img" : "https://i.postimg.cc/FRJhq88B/image.png",
      "name" : "MuyLinux",
      "url" : "https://www.muylinux.com/feed/",
      "urlsite" : "https://www.muylinux.com/"
    },{
      "id" : 6,
      "img" : "https://i.postimg.cc/656QcWtH/image.png",
      "name" : "Mas GNU/Linux",
      "url" : "https://masgnulinux.es/feed/",
      "urlsite" : "https://masgnulinux.es/"
    },{
      "id" : 7,
      "img" : "https://i.postimg.cc/vTY6550h/image.png",
      "name" : "Cambiate a Linux",
      "url" : "https://cambiatealinux.com/rss",
      "urlsite" : "https://cambiatealinux.com/"
    },{
      "id" : 8,
      "img" : "https://i.postimg.cc/RZNpcH8v/image.png",
      "name" : "El Binario",
      "url" : "https://elbinario.net/feed/",
      "urlsite" : "https://elbinario.net/"
    },{
      "id" : 9,
      "img" : "https://i.postimg.cc/SsL0F4Qj/image.png",
      "name" : "El blog de HoTseChu",
      "url" : "https://hotsechu.wordpress.com/feed/",
      "urlsite" : "https://hotsechu.wordpress.com/"
    },{
      "id" : 10,
      "img" : "https://i.postimg.cc/W3N8zc6d/image.png",
      "name" : "El Blogde Lazaro",
      "url" : "https://elblogdelazaro.gitlab.io/index.xml",
      "urlsite" : "https://elblogdelazaro.gitlab.io/"
    },{
      "id" : 11,
      "img" : "https://i.postimg.cc/nL07djBL/image.png",
      "name" : "EL ESPÍRITU DE KUSANAGI",
      "url" : "https://elespiritudekusanagi.wordpress.com/feed/",
      "urlsite" : "https://elespiritudekusanagi.wordpress.com/"
    },{
      "id" : 12,
      "img" : "https://i.postimg.cc/rm5DBDtW/image.png",
      "name" : "Malaga Original",
      "url" : "https://malagaoriginal.blogspot.com/feeds/posts/default",
      "urlsite" : "https://malagaoriginal.blogspot.com/"
    },{
      "id" : 13,
      "img" : "https://i.postimg.cc/RFmSnXN6/image.png",
      "name" : "Libre Software",
      "url" : "https://libre.news.blog/blog/feed",
      "urlsite" : "https://libre.news.blog/blog/"
    },{
      "id" : 14,
      "img" : "https://i.postimg.cc/VkMPBXyj/image.png",
      "name" : "Laboratorio Linux",
      "url" : "http://laboratoriolinux.es/?format=feed&type=rss",
      "urlsite" : "http://laboratoriolinux.es/"
    },{
      "id" : 15,
      "img" : "https://i.postimg.cc/jsrpYw0F/image.png",
      "name" : "exDebian",
      "url" : "http://exdebian.org/feed",
      "urlsite" : "http://exdebian.org/"
    },{
      "id" : 16,
      "img" : "https://i.postimg.cc/gjPgpLtP/image.png",
      "name" : "Electronics & Software",
      "url" : "https://electronicssoftware.net/linux/feed",
      "urlsite" : "https://electronicssoftware.net/linux/"
    },{
      "id" : 17,
      "img" : "https://i.postimg.cc/PfVNKSMG/image.png",
      "name" : "Maraton Linuxero",
      "url" : "https://maratonlinuxero.org/feed",
      "urlsite" : "https://maratonlinuxero.org/"
    },{
      "id" : 18,
      "img" : "https://i.ibb.co/k59zFNH/escuelalibre.png",
      "name" : "Escuela Libre",
      "url" : "http://escuelalibre.proyectoslibres.unq.edu.ar/?feed=rss2",
      "urlsite" : "http://escuelalibre.proyectoslibres.unq.edu.ar/"
    },{
      "id" : 19,
      "img" : "https://i.ibb.co/xYLDWmK/image.png",
      "name" : "Informatico de Guardia",
      "url" : "https://andalinux.wordpress.com/feed/",
      "urlsite" : "https://andalinux.wordpress.com/"
    },{
      "id" : 20,
      "img" : "https://i.ibb.co/m9MXvBX/image.png",
      "name" : "Enfoque Seguro",
      "url" : "https://enfoqueseguro.com/feed/",
      "urlsite" : "https://enfoqueseguro.com/"
    },{
      "id" : 21,
      "img" : "https://i.ibb.co/vHNptjn/image.png",
      "name" : "KS7000+WP",
      "url" : "https://www.ks7000.net.ve/feed/",
      "urlsite" : "https://www.ks7000.net.ve/"
    },{
      "id" : 22,
      "img" : "https://i.ibb.co/9pnnSX3/image.png",
      "name" : "Karla's Project",
      "url" : "https://karlaperezyt.com/feed/",
      "urlsite" : "https://karlaperezyt.com/"
    },{
      "id" : 23,
      "img" : "https://i.ibb.co/TvzXKPH/image.png",
      "name" : "_Void Null",
      "url" : "https://voidnull.es/feed/",
      "urlsite" : "https://voidnull.es/"
    },{
      "id" : 24,
      "img" : "https://i.ibb.co/6PnD9Gz/image.png",
      "name" : "De Novato a Novato",
      "url" : "https://denovatoanovato.net/feed/",
      "urlsite" : "https://denovatoanovato.net/"
    },{
      "id" : 25,
      "img" : "https://i.ibb.co/Z6tP633/image.png",
      "name" : "El Atareao",
      "url" : "https://www.atareao.es/feed/",
      "urlsite" : "https://www.atareao.es/"
    },{
      "id" : 26,
      "img" : "https://i.ibb.co/7nXj9mX/image.png",
      "name" : "Es Geeks",
      "url" : "https://esgeeks.com/feed/",
      "urlsite" : "https://esgeeks.com/"
    },{
      "id" : 27,
      "img" : "https://i.ibb.co/LP4vxkg/image.png",
      "name" : "Jugando en Linux",
      "url" : "https://jugandoenlinux.com/index.php?format=feed&type=rss",
      "urlsite" : "https://jugandoenlinux.com/"
    },{
      "id" : 28,
      "img" : "https://i.postimg.cc/jjVwCVsG/image.png",
      "name" : "Lignux",
      "url" : "https://lignux.com/feed/",
      "urlsite" : "https://lignux.com/"
    },{
      "id" : 29,
      "img" : "https://i.postimg.cc/nLkFxNMK/image.png",
      "name" : "NKSistemas",
      "url" : "https://nksistemas.com/feed/",
      "urlsite" : "https://nksistemas.com/"
    },{
      "id" : 30,
      "img" : "https://i.postimg.cc/WzHhjrdm/image.png",
      "name" : "mint • compartimos y ayudamos",
      "url" : "https://mastodon.host/@mintcompartimosyayudamos.rss",
      "urlsite" : "https://mastodon.host/@mintcompartimosyayudamos"
    },{
      "id" : 31,
      "img" : "https://i.postimg.cc/Gtg1HnnG/image.png",
      "name" : "Cumpi Linux",
      "url" : "https://www.youtube.com/feeds/videos.xml?channel_id=UC6ImDlcMZukA-pqtIaXqbdA",
      "urlsite" : "https://www.youtube.com/channel/UC6ImDlcMZukA-pqtIaXqbdA"
    }
  ]
}
